<svg width="40" height="40" viewBox="0 0 40 40" fill="none" xmlns="http://www.w3.org/2000/svg">
<g id="Frame 1000005030">
<g id="Group 1000004584">
<rect id="Rectangle 6687" x="8" y="21" width="11" height="11" rx="1" fill="#175CD3"/>
<rect id="Rectangle 6689" x="21" y="21" width="11" height="11" rx="1" fill="#175CD3"/>
<rect id="Rectangle 6688" x="8" y="8" width="11" height="11" rx="1" fill="#175CD3"/>
<rect id="Rectangle 6690" x="21" y="8" width="11" height="11" rx="1" fill="#175CD3"/>
</g>
</g>
</svg>
