<svg width="16" height="18" viewBox="0 0 16 18" fill="none" xmlns="http://www.w3.org/2000/svg">
<path fill-rule="evenodd" clip-rule="evenodd" d="M11.9084 3.9497H1.76761V16.6003H11.9084V3.9497ZM1.76761 2.68464C1.06753 2.68464 0.5 3.25103 0.5 3.9497V16.6003C0.5 17.299 1.06753 17.8654 1.76761 17.8654H11.9084C12.6085 17.8654 13.1761 17.299 13.1761 16.6003V3.9497C13.1761 3.25103 12.6085 2.68464 11.9084 2.68464H1.76761Z" fill="#722ED1"/>
<path fill-rule="evenodd" clip-rule="evenodd" d="M3.82764 6.9015C3.82764 6.55216 4.1114 6.26897 4.46144 6.26897H9.21496C9.565 6.26897 9.84876 6.55216 9.84876 6.9015C9.84876 7.25084 9.565 7.53403 9.21496 7.53403H4.46144C4.1114 7.53403 3.82764 7.25084 3.82764 6.9015Z" fill="#722ED1"/>
<path fill-rule="evenodd" clip-rule="evenodd" d="M3.82764 10.275C3.82764 9.92566 4.1114 9.64246 4.46144 9.64246H9.21496C9.565 9.64246 9.84876 9.92566 9.84876 10.275C9.84876 10.6243 9.565 10.9075 9.21496 10.9075H4.46144C4.1114 10.9075 3.82764 10.6243 3.82764 10.275Z" fill="#722ED1"/>
<path fill-rule="evenodd" clip-rule="evenodd" d="M3.82764 13.6485C3.82764 13.2992 4.1114 13.016 4.46144 13.016H9.21496C9.565 13.016 9.84876 13.2992 9.84876 13.6485C9.84876 13.9978 9.565 14.281 9.21496 14.281H4.46144C4.1114 14.281 3.82764 13.9978 3.82764 13.6485Z" fill="#722ED1"/>
<path fill-rule="evenodd" clip-rule="evenodd" d="M3.24648 0.997887C3.24648 0.64855 3.53024 0.365356 3.88028 0.365356H14.2324C14.9325 0.365356 15.5 0.931743 15.5 1.63042V13.6485C15.5 13.9978 15.2162 14.281 14.8662 14.281C14.5162 14.281 14.2324 13.9978 14.2324 13.6485L14.2324 1.63042H3.88028C3.53024 1.63042 3.24648 1.34722 3.24648 0.997887Z" fill="#722ED1"/>
</svg>
