<svg width="8" height="12" viewBox="0 0 8 12" fill="none" xmlns="http://www.w3.org/2000/svg">
<path d="M7.49994 4.84095L0.181763 8.56823V7.11368L5.7954 4.40914L5.74994 4.50004V4.27277L5.7954 4.36368L0.181763 1.65913V0.20459L7.49994 3.93186V4.84095Z" fill="black"/>
<path d="M0 11.7955V10.5682L7.49999 10.5683V11.7955L0 11.7955Z" fill="black"/>
</svg>
