<svg width="20" height="21" viewBox="0 0 20 21" fill="none" xmlns="http://www.w3.org/2000/svg">
<path d="M2.91663 16.4013C2.91663 14.3303 4.59556 13.068 6.66663 13.068H13.3333C15.4044 13.068 17.0833 14.3303 17.0833 16.4013V17.6513C17.0833 17.8814 16.8967 18.068 16.6666 18.068H3.33329C3.10317 18.068 2.91663 17.8814 2.91663 17.6513V16.4013Z" stroke="#175CD3" stroke-width="1.66667"/>
<circle cx="9.99996" cy="7.23458" r="3.33333" stroke="#175CD3" stroke-width="1.66667"/>
</svg>
